Ciencia de Datos para Políticas Públicas
…
Demo - Datos COVID

Demo 
 Script

Clase02_CodigoCovid.R

Datos COVID-19 
 Cargar datos

library(readr)
(datos_covid <- read_csv("datos/covid_datos_region.csv"))

## # A tibble: 1,888 x 11
##    region macroregion fecha      casos_covid codigo_region poblacion n_pcr_dia
##    <chr>  <chr>       <date>           <dbl>         <dbl>     <dbl>     <dbl>
##  1 Arica~ Norte Gran~ 2020-03-03           0            15    252110         0
##  2 Arica~ Norte Gran~ 2020-03-04           0            15    252110         0
##  3 Arica~ Norte Gran~ 2020-03-05           0            15    252110         0
##  4 Arica~ Norte Gran~ 2020-03-06           0            15    252110         0
##  5 Arica~ Norte Gran~ 2020-03-07           0            15    252110         0
##  6 Arica~ Norte Gran~ 2020-03-08           0            15    252110         0
##  7 Arica~ Norte Gran~ 2020-03-09           0            15    252110         0
##  8 Arica~ Norte Gran~ 2020-03-10           0            15    252110         0
##  9 Arica~ Norte Gran~ 2020-03-11           0            15    252110         0
## 10 Arica~ Norte Gran~ 2020-03-12           0            15    252110         0
## # ... with 1,878 more rows, and 4 more variables: muertes_covid <dbl>,
## #   pcr_acum <dbl>, pcr_acum_pob <dbl>, casos_covid_pob <dbl>
…
