Ciencia de Datos para Políticas Públicas
…
filter (i)

Solo las observaciones correspondientes a Chile

datosONU_tidy %>% 
  filter(country_name == "Chile")

## # A tibble: 36 x 17
##    country_name income_group region  year co2_emissions_m~ fertility_rate_~
##    <chr>        <chr>        <chr>  <dbl>            <dbl>            <dbl>
##  1 Chile        High Income  Latin~  1972             2.84             3.68
##  2 Chile        High Income  Latin~  1973             2.74             3.50
##  3 Chile        High Income  Latin~  1974             2.53             3.33
##  4 Chile        High Income  Latin~  1975             2.21             3.16
##  5 Chile        High Income  Latin~  1976             2.28             3.01
##  6 Chile        High Income  Latin~  1977             2.15             2.89
##  7 Chile        High Income  Latin~  1978             2.11             2.79
##  8 Chile        High Income  Latin~  1979             2.25             2.72
##  9 Chile        High Income  Latin~  1980             2.26             2.68
## 10 Chile        High Income  Latin~  1981             2.16             2.66
## # ... with 26 more rows, and 11 more variables:
## #   forest_area_percent_of_land_area <dbl>,
## #   gdp_per_capita_constant_2005_us <dbl>,
## #   health_expenditure_per_capita_ppp_constant_2005_international <dbl>,
## #   labor_force_participation_rate_female_percent_of_female_population_ages_15_modeled_ilo_estimate <dbl>,
## #   life_expectancy_at_birth_total_years <dbl>,
## #   malnutrition_prevalence_weight_for_age_percent_of_children_under_5 <dbl>,
## #   population_total <dbl>, urban_population_percent_of_total <dbl>,
## #   fossil_fuel_energy_consumption_percent_of_total <dbl>,
…
filter (iii)

Solo las observaciones correspondientes al 2000 o al 2007

datosONU_tidy %>% 
  filter(year == 2000 | year == 2007)

## # A tibble: 428 x 17
##    country_name income_group region  year co2_emissions_m~ fertility_rate_~
##    <chr>        <chr>        <chr>  <dbl>            <dbl>            <dbl>
##  1 Afghanistan  Low Income   South~  2000           0.0379             7.73
##  2 Afghanistan  Low Income   South~  2007           0.0756             6.46
##  3 Albania      Upper Middl~ Europ~  2000           0.978              2.38
##  4 Albania      Upper Middl~ Europ~  2007           1.38               1.80
##  5 Algeria      Upper Middl~ Middl~  2000           2.77               2.51
##  6 Algeria      Upper Middl~ Middl~  2007           3.20               2.66
##  7 American Sa~ Upper Middl~ East ~  2000          NA                 NA   
##  8 American Sa~ Upper Middl~ East ~  2007          NA                 NA   
##  9 Andorra      High Income  Europ~  2000           8.02              NA   
## 10 Andorra      High Income  Europ~  2007           6.63               1.18
## # ... with 418 more rows, and 11 more variables:
## #   forest_area_percent_of_land_area <dbl>,
## #   gdp_per_capita_constant_2005_us <dbl>,
## #   health_expenditure_per_capita_ppp_constant_2005_international <dbl>,
## #   labor_force_participation_rate_female_percent_of_female_population_ages_15_modeled_ilo_estimate <dbl>,
## #   life_expectancy_at_birth_total_years <dbl>,
## #   malnutrition_prevalence_weight_for_age_percent_of_children_under_5 <dbl>,
## #   population_total <dbl>, urban_population_percent_of_total <dbl>,
## #   fossil_fuel_energy_consumption_percent_of_total <dbl>,
…
!(x %in% y)
todo lo perteneciente a y que no es x

!x
no x

filter (iv)

Solo las observaciones correspondientes a los años 1995, 2000, y 2005

datosONU_tidy %>% 
  filter(year %in% c(1995, 2000, 2005))

## # A tibble: 642 x 17
##    country_name income_group region  year co2_emissions_m~ fertility_rate_~
##    <chr>        <chr>        <chr>  <dbl>            <dbl>            <dbl>
##  1 Afghanistan  Low Income   South~  1995           0.0721             7.83
##  2 Afghanistan  Low Income   South~  2000           0.0379             7.73
##  3 Afghanistan  Low Income   South~  2005           0.0409             6.93
##  4 Albania      Upper Middl~ Europ~  1995           0.655              2.72
##  5 Albania      Upper Middl~ Europ~  2000           0.978              2.38
##  6 Albania      Upper Middl~ Europ~  2005           1.42               1.92
##  7 Algeria      Upper Middl~ Middl~  1995           3.23               3.45
##  8 Algeria      Upper Middl~ Middl~  2000           2.77               2.51
##  9 Algeria      Upper Middl~ Middl~  2005           3.15               2.51
## 10 American Sa~ Upper Middl~ East ~  1995          NA                 NA   
## # ... with 632 more rows, and 11 more variables:
## #   forest_area_percent_of_land_area <dbl>,
## #   gdp_per_capita_constant_2005_us <dbl>,
## #   health_expenditure_per_capita_ppp_constant_2005_international <dbl>,
## #   labor_force_participation_rate_female_percent_of_female_population_ages_15_modeled_ilo_estimate <dbl>,
## #   life_expectancy_at_birth_total_years <dbl>,
## #   malnutrition_prevalence_weight_for_age_percent_of_children_under_5 <dbl>,
## #   population_total <dbl>, urban_population_percent_of_total <dbl>,
## #   fossil_fuel_energy_consumption_percent_of_total <dbl>,
## #   poverty_headcount_ratio_at_2_a_day_ppp_percent_of_population <dbl>,
## #   public_spending_on_education_total_percent_of_government_expenditure <dbl>

filter (v)

Solo las observaciones NO correspondientes a los años 1995, 2000, y 2005

datosONU_tidy %>% 
  filter(!year %in% c(1995, 2000, 2005))

## # A tibble: 7,062 x 17
##    country_name income_group region  year co2_emissions_m~ fertility_rate_~
##    <chr>        <chr>        <chr>  <dbl>            <dbl>            <dbl>
##  1 Afghanistan  Low Income   South~  1972            0.132             7.67
##  2 Afghanistan  Low Income   South~  1973            0.137             7.67
##  3 Afghanistan  Low Income   South~  1974            0.156             7.67
##  4 Afghanistan  Low Income   South~  1975            0.169             7.67
##  5 Afghanistan  Low Income   South~  1976            0.155             7.67
##  6 Afghanistan  Low Income   South~  1977            0.183             7.67
##  7 Afghanistan  Low Income   South~  1978            0.164             7.67
##  8 Afghanistan  Low Income   South~  1979            0.169             7.67
##  9 Afghanistan  Low Income   South~  1980            0.134             7.67
## 10 Afghanistan  Low Income   South~  1981            0.153             7.67
## # ... with 7,052 more rows, and 11 more variables:
## #   forest_area_percent_of_land_area <dbl>,
## #   gdp_per_capita_constant_2005_us <dbl>,
## #   health_expenditure_per_capita_ppp_constant_2005_international <dbl>,
## #   labor_force_participation_rate_female_percent_of_female_population_ages_15_modeled_ilo_estimate <dbl>,
## #   life_expectancy_at_birth_total_years <dbl>,
## #   malnutrition_prevalence_weight_for_age_percent_of_children_under_5 <dbl>,
## #   population_total <dbl>, urban_population_percent_of_total <dbl>,
## #   fossil_fuel_energy_consumption_percent_of_total <dbl>,
…
select (i)

Seleccionar 5 variables/columnas

datosONU_tidy %>% 
  select(country_name, income_group, region, year, population_total)

## # A tibble: 7,704 x 5
##    country_name income_group region      year population_total
##    <chr>        <chr>        <chr>      <dbl>            <dbl>
##  1 Afghanistan  Low Income   South Asia  1972         11644377
##  2 Afghanistan  Low Income   South Asia  1973         11966352
##  3 Afghanistan  Low Income   South Asia  1974         12273589
##  4 Afghanistan  Low Income   South Asia  1975         12551790
##  5 Afghanistan  Low Income   South Asia  1976         12806810
##  6 Afghanistan  Low Income   South Asia  1977         13034460
##  7 Afghanistan  Low Income   South Asia  1978         13199597
##  8 Afghanistan  Low Income   South Asia  1979         13257128
##  9 Afghanistan  Low Income   South Asia  1980         13180431
## 10 Afghanistan  Low Income   South Asia  1981         12963788
## # ... with 7,694 more rows

select (ii)

Dejar todas las columnas menos dos

datosONU_tidy %>% 
  select(-region, -income_group)

## # A tibble: 7,704 x 15
##    country_name  year co2_emissions_m~ fertility_rate_~ forest_area_per~
##    <chr>        <dbl>            <dbl>            <dbl>            <dbl>
##  1 Afghanistan   1972            0.132             7.67               NA
##  2 Afghanistan   1973            0.137             7.67               NA
##  3 Afghanistan   1974            0.156             7.67               NA
##  4 Afghanistan   1975            0.169             7.67               NA
##  5 Afghanistan   1976            0.155             7.67               NA
##  6 Afghanistan   1977            0.183             7.67               NA
##  7 Afghanistan   1978            0.164             7.67               NA
##  8 Afghanistan   1979            0.169             7.67               NA
##  9 Afghanistan   1980            0.134             7.67               NA
## 10 Afghanistan   1981            0.153             7.67               NA
## # ... with 7,694 more rows, and 10 more variables:
## #   gdp_per_capita_constant_2005_us <dbl>,
## #   health_expenditure_per_capita_ppp_constant_2005_international <dbl>,
## #   labor_force_participation_rate_female_percent_of_female_population_ages_15_modeled_ilo_estimate <dbl>,
## #   life_expectancy_at_birth_total_years <dbl>,
## #   malnutrition_prevalence_weight_for_age_percent_of_children_under_5 <dbl>,
## #   population_total <dbl>, urban_population_percent_of_total <dbl>,
## #   fossil_fuel_energy_consumption_percent_of_total <dbl>,
## #   poverty_headcount_ratio_at_2_a_day_ppp_percent_of_population <dbl>,
## #   public_spending_on_education_total_percent_of_government_expenditure <dbl>

select tiene varias funciones “de ayuda” (i)

Dejar todas las columnas que contengan per capita

datosONU_tidy %>% 
  select(contains("per_capita"))

## # A tibble: 7,704 x 3
##    co2_emissions_metric_t~ gdp_per_capita_const~ health_expenditure_per_capita_~
##                      <dbl>                 <dbl>                           <dbl>
##  1                   0.132                    NA                              NA
##  2                   0.137                    NA                              NA
##  3                   0.156                    NA                              NA
##  4                   0.169                    NA                              NA
##  5                   0.155                    NA                              NA
##  6                   0.183                    NA                              NA
##  7                   0.164                    NA                              NA
##  8                   0.169                    NA                              NA
##  9                   0.134                    NA                              NA
## 10                   0.153                    NA                              NA
## # ... with 7,694 more rows

select tiene varias funciones “de ayuda” (ii)

Dejar todas las columnas que comiencen con p

datosONU_tidy %>% 
  select(starts_with("p"))

## # A tibble: 7,704 x 3
##    population_total poverty_headcount_ratio_at_2~ public_spending_on_education_~
##               <dbl>                         <dbl>                          <dbl>
##  1         11644377                            NA                             NA
##  2         11966352                            NA                             NA
##  3         12273589                            NA                             NA
##  4         12551790                            NA                             NA
##  5         12806810                            NA                             NA
##  6         13034460                            NA                             NA
##  7         13199597                            NA                             NA
##  8         13257128                            NA                             NA
##  9         13180431                            NA                             NA
## 10         12963788                            NA                             NA
## # ... with 7,694 more rows

select tiene varias funciones “de ayuda” (iii)

Dejar todas las columnas numéricas

datosONU_tidy %>% 
  select(where(is.numeric))

## # A tibble: 7,704 x 14
##     year co2_emissions_m~ fertility_rate_~ forest_area_per~ gdp_per_capita_~
##    <dbl>            <dbl>            <dbl>            <dbl>            <dbl>
##  1  1972            0.132             7.67               NA               NA
##  2  1973            0.137             7.67               NA               NA
##  3  1974            0.156             7.67               NA               NA
##  4  1975            0.169             7.67               NA               NA
##  5  1976            0.155             7.67               NA               NA
##  6  1977            0.183             7.67               NA               NA
##  7  1978            0.164             7.67               NA               NA
##  8  1979            0.169             7.67               NA               NA
##  9  1980            0.134             7.67               NA               NA
## 10  1981            0.153             7.67               NA               NA
## # ... with 7,694 more rows, and 9 more variables:
## #   health_expenditure_per_capita_ppp_constant_2005_international <dbl>,
## #   labor_force_participation_rate_female_percent_of_female_population_ages_15_modeled_ilo_estimate <dbl>,
## #   life_expectancy_at_birth_total_years <dbl>,
## #   malnutrition_prevalence_weight_for_age_percent_of_children_under_5 <dbl>,
## #   population_total <dbl>, urban_population_percent_of_total <dbl>,
## #   fossil_fuel_energy_consumption_percent_of_total <dbl>,
## #   poverty_headcount_ratio_at_2_a_day_ppp_percent_of_population <dbl>,
## #   public_spending_on_education_total_percent_of_government_expenditure <dbl>
…
mutate para agregar nuevas columnas

Nueva columna calculando el logaritmo de una existente

datosONU_tidy %>%
  select(country_name, year, co2_emissions_metric_tons_per_capita) %>% 
  mutate(log_co2_emissions = log(co2_emissions_metric_tons_per_capita))

## # A tibble: 7,704 x 4
##    country_name  year co2_emissions_metric_tons_per_capita log_co2_emissions
##    <chr>        <dbl>                                <dbl>             <dbl>
##  1 Afghanistan   1972                                0.132             -2.03
##  2 Afghanistan   1973                                0.137             -1.99
##  3 Afghanistan   1974                                0.156             -1.86
##  4 Afghanistan   1975                                0.169             -1.78
##  5 Afghanistan   1976                                0.155             -1.86
##  6 Afghanistan   1977                                0.183             -1.70
##  7 Afghanistan   1978                                0.164             -1.81
##  8 Afghanistan   1979                                0.169             -1.78
##  9 Afghanistan   1980                                0.134             -2.01
## 10 Afghanistan   1981                                0.153             -1.88
## # ... with 7,694 more rows
…
##  [1] "country_name"              "income_group"             
##  [3] "region"                    "year"                     
##  [5] "co2_emissions"             "fertility_rate"           
##  [7] "forest_area"               "gdp_per_capita"           
##  [9] "health_expenditure"        "labor_force_participation"
## [11] "life_expectancy"           "malnutrition_prevalence"  
## [13] "population_total"          "urban_population"         
## [15] "fossil_fuel_consumption"   "poverty"                  
## [17] "public_spending_education"

arrange para ordenar filas según columnas (i)

datosONU_tidy

## # A tibble: 7,704 x 17
##    country_name income_group region  year co2_emissions fertility_rate
##    <chr>        <chr>        <chr>  <dbl>         <dbl>          <dbl>
##  1 Afghanistan  Low Income   South~  1972         0.132           7.67
##  2 Afghanistan  Low Income   South~  1973         0.137           7.67
##  3 Afghanistan  Low Income   South~  1974         0.156           7.67
##  4 Afghanistan  Low Income   South~  1975         0.169           7.67
##  5 Afghanistan  Low Income   South~  1976         0.155           7.67
##  6 Afghanistan  Low Income   South~  1977         0.183           7.67
##  7 Afghanistan  Low Income   South~  1978         0.164           7.67
##  8 Afghanistan  Low Income   South~  1979         0.169           7.67
##  9 Afghanistan  Low Income   South~  1980         0.134           7.67
## 10 Afghanistan  Low Income   South~  1981         0.153           7.67
## # ... with 7,694 more rows, and 11 more variables: forest_area <dbl>,
## #   gdp_per_capita <dbl>, health_expenditure <dbl>,
## #   labor_force_participation <dbl>, life_expectancy <dbl>,
## #   malnutrition_prevalence <dbl>, population_total <dbl>,
## #   urban_population <dbl>, fossil_fuel_consumption <dbl>, poverty <dbl>,
## #   public_spending_education <dbl>

arrange para ordenar filas según columnas (ii)

datosONU_tidy %>% 
  arrange(year)

## # A tibble: 7,704 x 17
##    country_name income_group region  year co2_emissions fertility_rate
##    <chr>        <chr>        <chr>  <dbl>         <dbl>          <dbl>
##  1 Afghanistan  Low Income   South~  1972         0.132           7.67
##  2 Albania      Upper Middl~ Europ~  1972         2.52            4.81
##  3 Algeria      Upper Middl~ Middl~  1972         1.83            7.59
##  4 American Sa~ Upper Middl~ East ~  1972        NA              NA   
##  5 Andorra      High Income  Europ~  1972        NA              NA   
##  6 Angola       Lower Middl~ Sub-s~  1972         0.729           7.23
##  7 Antigua and~ High Income  Latin~  1972         5.57            3.33
##  8 Argentina    Upper Middl~ Latin~  1972         3.64            3.15
##  9 Armenia      Upper Middl~ Europ~  1972        NA               3.03
## 10 Aruba        High Income  Latin~  1972        NA               2.69
## # ... with 7,694 more rows, and 11 more variables: forest_area <dbl>,
## #   gdp_per_capita <dbl>, health_expenditure <dbl>,
## #   labor_force_participation <dbl>, life_expectancy <dbl>,
## #   malnutrition_prevalence <dbl>, population_total <dbl>,
## #   urban_population <dbl>, fossil_fuel_consumption <dbl>, poverty <dbl>,
## #   public_spending_education <dbl>

arrange para ordenar filas según columnas (iii)

datosONU_tidy %>% 
  arrange(-year, income_group)

## # A tibble: 7,704 x 17
##    country_name income_group region  year co2_emissions fertility_rate
##    <chr>        <chr>        <chr>  <dbl>         <dbl>          <dbl>
##  1 Andorra      High Income  Europ~  2007          6.63           1.18
##  2 Antigua and~ High Income  Latin~  2007          5.26           2.18
##  3 Aruba        High Income  Latin~  2007         23.3            1.74
##  4 Australia    High Income  East ~  2007         18.1            1.96
##  5 Austria      High Income  Europ~  2007          8.33           1.38
##  6 Bahamas, The High Income  Latin~  2007          4.52           1.88
##  7 Bahrain      High Income  Middl~  2007         21.7            2.29
##  8 Barbados     High Income  Latin~  2007          5.16           1.83
##  9 Belgium      High Income  Europ~  2007          9.71           1.82
## 10 Bermuda      High Income  North~  2007          7.97           1.76
## # ... with 7,694 more rows, and 11 more variables: forest_area <dbl>,
## #   gdp_per_capita <dbl>, health_expenditure <dbl>,
## #   labor_force_participation <dbl>, life_expectancy <dbl>,
## #   malnutrition_prevalence <dbl>, population_total <dbl>,
## #   urban_population <dbl>, fossil_fuel_consumption <dbl>, poverty <dbl>,
## #   public_spending_education <dbl>
…
